B077WHTDM1
B0B2DJFFY2
B07D7CJ733
B088C448K4
B01K7THAE5
B07D6SG3G6
B08F9XK2V7
B09TTPZ2C4
B07V5BKPN9
B08HMB5HL5
B07MYDF5S1
B08Y85W7SY
B09PDZHF77
B07855P7PB
B07SQ1GRKJ
B07G4F2XY4
B08F9ZPM4N
B09CGW8K51
B07KMGHG48
B0751DPDMZ
B017DPSJH0
B09JSR4KR8
B07MLFQKTP
B09RHCVTDZ
B095WTBM2B
B08LTCW5H7
B06XGT7RZ1
B096VV2B12
B01MQGUR21
B073QW22CD
B013P33EU6
B097DQKCRZ
B010VUA0JE
B086836STQ
B08W6PHJ2C
B08Q7MGHG2
B09XBFT753
B01ITMM53A